Google Analytics Capstone: Case Study 1
…
write_csv(summary_users, 'summary_users.csv')

By hour

summary_hour <- df_1 %>%
  group_by(hour, member_casual) %>%
  summarise(
    total_trips_hour = n(),
    mean_trip_time_hour = mean(trip_time),
    sum_trip_time_hour = sum(trip_time),
    .groups = 'drop'
  )
summary_hour

## # A tibble: 48 × 5
##    hour  member_casual total_trips_hour mean_trip_time_hour sum_trip_time_hour
##    <fct> <fct>                    <int> <drtn>              <drtn>            
##  1 0     casual                    5690 36.60832 mins       208301.35 mins    
##  2 0     member                    3548 14.02192 mins        49749.78 mins    
##  3 1     casual                    4133 45.52979 mins       188174.62 mins    
##  4 1     member                    2379 15.95584 mins        37958.95 mins    
##  5 2     casual                    2707 34.58711 mins        93627.30 mins    
##  6 2     member                    1342 12.56533 mins        16862.67 mins    
##  7 3     casual                    1481 43.96340 mins        65109.80 mins    
##  8 3     member                     791 15.11104 mins        11952.83 mins    
##  9 4     casual                    1023 53.57489 mins        54807.12 mins    
## 10 4     member                     924 13.66228 mins        12623.95 mins    
## # … with 38 more rows
…
write_csv(summary_day, 'summary_week.csv')

By month

summary_month <- df_1 %>%
  group_by(month, member_casual) %>%
  summarise(
    total_trips_month = n(),
    mean_trip_time_month = mean(trip_time),
    sum_trip_time_month = sum(trip_time),
    .groups = 'drop'
  )
summary_month

## # A tibble: 24 × 5
##    month     member_casual total_trips_month mean_trip_time_mo… sum_trip_time_m…
##    <ord>     <fct>                     <int> <drtn>             <drtn>          
##  1 janeiro   casual                     1900 54.61225 mins      103763.3 mins   
##  2 janeiro   member                     8976 11.94692 mins      107235.5 mins   
##  3 fevereiro casual                     2250 23.42467 mins       52705.5 mins   
##  4 fevereiro member                     9786 11.22260 mins      109824.3 mins   
##  5 março     casual                     9551 36.00960 mins      343927.7 mins   
##  6 março     member                    20486 11.78569 mins      241441.6 mins   
##  7 abril     casual                    14296 38.44233 mins      549571.5 mins   
##  8 abril     member                    20891 14.67041 mins      306479.4 mins   
##  9 maio      casual                    26967 35.83284 mins      966304.2 mins   
## 10 maio      member                    28823 14.66341 mins      422643.5 mins   
## # … with 14 more rows
…
By station

summary_start_station <- df_station_cleaned %>%
  group_by(start_station_name, member_casual) %>%
  summarise(
    total_trips_start_station = n()
  ) %>%
  arrange(-total_trips_start_station)

## `summarise()` has grouped output by 'start_station_name'. You can override
## using the `.groups` argument.

summary_start_station

## # A tibble: 1,554 × 3
## # Groups:   start_station_name [824]
##    start_station_name       member_casual total_trips_start_station
##    <chr>                    <fct>                             <int>
##  1 Streeter Dr & Grand Ave  casual                             6984
##  2 Millennium Park          casual                             3340
##  3 Michigan Ave & Oak St    casual                             2915
##  4 Kingsbury St & Kinzie St member                             2509
##  5 Wells St & Concord Ln    member                             2429
##  6 Clark St & Elm St        member                             2428
##  7 Shedd Aquarium           casual                             2208
##  8 Theater on the Lake      casual                             2137
##  9 Wells St & Elm St        member                             2129
## 10 Wells St & Concord Ln    casual                             1993
## # … with 1,544 more rows
write.csv(summary_start_station, 'summary_start_station.csv')

summary_end_station <- df_station_cleaned %>%
  group_by(end_station_name, member_casual) %>%
  summarise(
    total_trips_end_station = n()
    ) %>%
  arrange(-total_trips_end_station)

## `summarise()` has grouped output by 'end_station_name'. You can override using
## the `.groups` argument.

summary_end_station

## # A tibble: 1,540 × 3
## # Groups:   end_station_name [819]
##    end_station_name         member_casual total_trips_end_station
##    <chr>                    <fct>                           <int>
##  1 Streeter Dr & Grand Ave  casual                           7182
##  2 Millennium Park          casual                           3429
##  3 Michigan Ave & Oak St    casual                           3128
##  4 Kingsbury St & Kinzie St member                           2522
##  5 Wells St & Concord Ln    member                           2514
##  6 Clark St & Elm St        member                           2427
##  7 Theater on the Lake      casual                           2261
##  8 Shedd Aquarium           casual                           2247
##  9 Wells St & Elm St        member                           2187
## 10 Dearborn St & Erie St    member                           2008
## # … with 1,530 more rows
…
summary_bike <- df_1 %>% 
  group_by(rideable_type, member_casual, day_week) %>%
  summarise(
    total_trips_rideable_type = n(),
    mean_trip_time_rideable_type = mean(trip_time),
    sum_trip_time_rideable_type = sum(trip_time)
  )

## `summarise()` has grouped output by 'rideable_type', 'member_casual'. You can
## override using the `.groups` argument.

summary_bike

## # A tibble: 35 × 6
## # Groups:   rideable_type, member_casual [5]
##    rideable_type member_casual day_week      total_trips_ridea… mean_trip_time_…
##    <fct>         <fct>         <ord>                      <int> <drtn>          
##  1 classic_bike  casual        domingo                    26733 32.63785 mins   
##  2 classic_bike  casual        segunda-feira              14350 29.33746 mins   
##  3 classic_bike  casual        terça-feira                12996 26.02313 mins   
##  4 classic_bike  casual        quarta-feira               14007 25.50816 mins   
##  5 classic_bike  casual        quinta-feira               14506 26.02200 mins   
##  6 classic_bike  casual        sexta-feira                18400 26.96039 mins   
##  7 classic_bike  casual        sábado                     31050 30.36735 mins   
##  8 classic_bike  member        domingo                    26451 16.08438 mins   
##  9 classic_bike  member        segunda-feira              29046 13.29500 mins   
## 10 classic_bike  member        terça-feira                31602 13.03655 mins   
## # … with 25 more rows, and 1 more variable: sum_trip_time_rideable_type <drtn>
…
